EESchema Schematic File Version 4
EELAYER 30 0
EELAYER END
$Descr A4 11693 8268
encoding utf-8
Sheet 2 5
Title ""
Date ""
Rev ""
Comp ""
Comment1 ""
Comment2 ""
Comment3 ""
Comment4 ""
$EndDescr
$Comp
L 10cx085:10CX085YU484E6G U?
U 8 1 5FC726A6
P 700 5500
F 0 "U?" H 1200 5790 60  0000 C CNN
F 1 "10CX085YU484E6G" H 1200 5684 60  0000 C CNN
F 2 "UBGA484:BGA-484_22x22_19.0x19.0mm" H 900 5550 60  0001 L CNN
F 3 "" H 900 5350 60  0001 L CNN
F 4 "10CX085YU484E6G" H 900 5450 60  0001 L CNN "manf#"
	8    700  5500
	1    0    0    -1  
$EndComp
$Comp
L 10cx085:10CX085YU484E6G U?
U 9 1 5FC726AD
P 2000 5500
F 0 "U?" H 2500 5790 60  0000 C CNN
F 1 "10CX085YU484E6G" H 2500 5684 60  0000 C CNN
F 2 "UBGA484:BGA-484_22x22_19.0x19.0mm" H 2200 5550 60  0001 L CNN
F 3 "" H 2200 5350 60  0001 L CNN
F 4 "10CX085YU484E6G" H 2200 5450 60  0001 L CNN "manf#"
	9    2000 5500
	1    0    0    -1  
$EndComp
$Comp
L 10cx085:10CX085YU484E6G U?
U 10 1 5FC726B4
P 3300 5500
F 0 "U?" H 3800 5790 60  0000 C CNN
F 1 "10CX085YU484E6G" H 3800 5684 60  0000 C CNN
F 2 "UBGA484:BGA-484_22x22_19.0x19.0mm" H 3500 5550 60  0001 L CNN
F 3 "" H 3500 5350 60  0001 L CNN
F 4 "10CX085YU484E6G" H 3500 5450 60  0001 L CNN "manf#"
	10   3300 5500
	1    0    0    -1  
$EndComp
$Comp
L 10cx085:10CX085YU484E6G U?
U 11 1 5FC726BB
P 4600 7000
F 0 "U?" H 5100 7290 60  0000 C CNN
F 1 "10CX085YU484E6G" H 5100 7184 60  0000 C CNN
F 2 "UBGA484:BGA-484_22x22_19.0x19.0mm" H 4800 7050 60  0001 L CNN
F 3 "" H 4800 6850 60  0001 L CNN
F 4 "10CX085YU484E6G" H 4800 6950 60  0001 L CNN "manf#"
	11   4600 7000
	1    0    0    -1  
$EndComp
$Comp
L 10cx085:10CX085YU484E6G U?
U 12 1 5FC726C2
P 4550 6300
F 0 "U?" H 5200 6590 60  0000 C CNN
F 1 "10CX085YU484E6G" H 5200 6484 60  0000 C CNN
F 2 "UBGA484:BGA-484_22x22_19.0x19.0mm" H 4750 6350 60  0001 L CNN
F 3 "" H 4750 6150 60  0001 L CNN
F 4 "10CX085YU484E6G" H 4750 6250 60  0001 L CNN "manf#"
	12   4550 6300
	1    0    0    -1  
$EndComp
$Comp
L 10cx085:10CX085YU484E6G U?
U 13 1 5FC726C9
P 6050 6400
F 0 "U?" H 6450 6690 60  0000 C CNN
F 1 "10CX085YU484E6G" H 6450 6584 60  0000 C CNN
F 2 "UBGA484:BGA-484_22x22_19.0x19.0mm" H 6250 6450 60  0001 L CNN
F 3 "" H 6250 6250 60  0001 L CNN
F 4 "10CX085YU484E6G" H 6250 6350 60  0001 L CNN "manf#"
	13   6050 6400
	1    0    0    -1  
$EndComp
$Comp
L 10cx085:10CX085YU484E6G U?
U 14 1 5FC726D0
P 1150 1150
F 0 "U?" H 1650 1440 60  0000 C CNN
F 1 "10CX085YU484E6G" H 1650 1334 60  0000 C CNN
F 2 "UBGA484:BGA-484_22x22_19.0x19.0mm" H 1350 1200 60  0001 L CNN
F 3 "" H 1350 1000 60  0001 L CNN
F 4 "10CX085YU484E6G" H 1350 1100 60  0001 L CNN "manf#"
	14   1150 1150
	1    0    0    -1  
$EndComp
$Comp
L 10cx085:10CX085YU484E6G U?
U 15 1 5FC726D7
P 2700 1100
F 0 "U?" H 3400 1390 60  0000 C CNN
F 1 "10CX085YU484E6G" H 3400 1284 60  0000 C CNN
F 2 "UBGA484:BGA-484_22x22_19.0x19.0mm" H 2900 1150 60  0001 L CNN
F 3 "" H 2900 950 60  0001 L CNN
F 4 "10CX085YU484E6G" H 2900 1050 60  0001 L CNN "manf#"
	15   2700 1100
	1    0    0    -1  
$EndComp
$Comp
L 10cx085:10CX085YU484E6G U?
U 16 1 5FC726DE
P 2700 2150
F 0 "U?" H 3600 2440 60  0000 C CNN
F 1 "10CX085YU484E6G" H 3600 2334 60  0000 C CNN
F 2 "UBGA484:BGA-484_22x22_19.0x19.0mm" H 2900 2200 60  0001 L CNN
F 3 "" H 2900 2000 60  0001 L CNN
F 4 "10CX085YU484E6G" H 2900 2100 60  0001 L CNN "manf#"
	16   2700 2150
	1    0    0    -1  
$EndComp
$Comp
L power:GND #PWR?
U 1 1 5FF5ADF0
P 650 7500
F 0 "#PWR?" H 650 7250 50  0001 C CNN
F 1 "GND" H 655 7327 50  0000 C CNN
F 2 "" H 650 7500 50  0001 C CNN
F 3 "" H 650 7500 50  0001 C CNN
	1    650  7500
	1    0    0    -1  
$EndComp
$Comp
L power:GND #PWR?
U 1 1 5FF683E4
P 1850 7500
F 0 "#PWR?" H 1850 7250 50  0001 C CNN
F 1 "GND" H 1855 7327 50  0000 C CNN
F 2 "" H 1850 7500 50  0001 C CNN
F 3 "" H 1850 7500 50  0001 C CNN
	1    1850 7500
	1    0    0    -1  
$EndComp
Wire Wire Line
	700  5500 650  5500
Wire Wire Line
	650  5500 650  5600
Wire Wire Line
	700  5600 650  5600
Connection ~ 650  5600
Wire Wire Line
	650  5600 650  5700
Wire Wire Line
	700  5700 650  5700
Connection ~ 650  5700
Wire Wire Line
	650  5700 650  5800
Wire Wire Line
	700  5800 650  5800
Connection ~ 650  5800
Wire Wire Line
	650  5800 650  5900
Wire Wire Line
	700  5900 650  5900
Connection ~ 650  5900
Wire Wire Line
	650  5900 650  6000
Wire Wire Line
	700  6000 650  6000
Connection ~ 650  6000
Wire Wire Line
	650  6000 650  6100
Wire Wire Line
	700  6100 650  6100
Connection ~ 650  6100
Wire Wire Line
	650  6100 650  6200
Wire Wire Line
	700  6200 650  6200
Connection ~ 650  6200
Wire Wire Line
	650  6200 650  6300
Wire Wire Line
	700  6300 650  6300
Connection ~ 650  6300
Wire Wire Line
	650  6300 650  6400
Wire Wire Line
	700  6400 650  6400
Connection ~ 650  6400
Wire Wire Line
	650  6400 650  6500
Wire Wire Line
	700  6500 650  6500
Connection ~ 650  6500
Wire Wire Line
	650  6500 650  6600
Wire Wire Line
	700  6600 650  6600
Connection ~ 650  6600
Wire Wire Line
	650  6600 650  6700
Wire Wire Line
	700  6700 650  6700
Connection ~ 650  6700
Wire Wire Line
	650  6700 650  6800
Wire Wire Line
	700  6800 650  6800
Connection ~ 650  6800
Wire Wire Line
	650  6800 650  6900
Wire Wire Line
	700  6900 650  6900
Connection ~ 650  6900
Wire Wire Line
	650  6900 650  7000
Wire Wire Line
	700  7000 650  7000
Connection ~ 650  7000
Wire Wire Line
	650  7000 650  7100
Wire Wire Line
	700  7100 650  7100
Connection ~ 650  7100
Wire Wire Line
	650  7100 650  7200
Wire Wire Line
	700  7200 650  7200
Connection ~ 650  7200
Wire Wire Line
	650  7200 650  7300
Wire Wire Line
	700  7300 650  7300
Connection ~ 650  7300
Wire Wire Line
	650  7300 650  7400
Wire Wire Line
	700  7400 650  7400
Connection ~ 650  7400
Wire Wire Line
	650  7400 650  7500
Wire Wire Line
	1850 7500 1850 7400
Wire Wire Line
	1850 5500 1700 5500
Wire Wire Line
	1700 5600 1850 5600
Connection ~ 1850 5600
Wire Wire Line
	1850 5600 1850 5500
Wire Wire Line
	1700 5700 1850 5700
Connection ~ 1850 5700
Wire Wire Line
	1850 5700 1850 5600
Wire Wire Line
	1700 5800 1850 5800
Connection ~ 1850 5800
Wire Wire Line
	1850 5800 1850 5700
Wire Wire Line
	1700 5900 1850 5900
Connection ~ 1850 5900
Wire Wire Line
	1850 5900 1850 5800
Connection ~ 1850 6000
Wire Wire Line
	1850 6000 1850 5900
Wire Wire Line
	1700 6000 1850 6000
Wire Wire Line
	1700 6100 1850 6100
Connection ~ 1850 6100
Wire Wire Line
	1850 6100 1850 6000
Wire Wire Line
	1700 6200 1850 6200
Connection ~ 1850 6200
Wire Wire Line
	1850 6200 1850 6100
Wire Wire Line
	1700 6300 1850 6300
Connection ~ 1850 6300
Wire Wire Line
	1850 6300 1850 6200
Wire Wire Line
	1700 6400 1850 6400
Connection ~ 1850 6400
Wire Wire Line
	1850 6400 1850 6300
Connection ~ 1850 6500
Wire Wire Line
	1850 6500 1850 6400
Wire Wire Line
	1700 6500 1850 6500
Wire Wire Line
	1700 6600 1850 6600
Connection ~ 1850 6600
Wire Wire Line
	1850 6600 1850 6500
Wire Wire Line
	1700 6700 1850 6700
Connection ~ 1850 6700
Wire Wire Line
	1850 6700 1850 6600
Wire Wire Line
	1700 6800 1850 6800
Connection ~ 1850 6800
Wire Wire Line
	1850 6800 1850 6700
Wire Wire Line
	1700 6900 1850 6900
Connection ~ 1850 6900
Wire Wire Line
	1850 6900 1850 6800
Connection ~ 1850 7000
Wire Wire Line
	1850 7000 1850 6900
Wire Wire Line
	1700 7100 1850 7100
Connection ~ 1850 7100
Wire Wire Line
	1850 7100 1850 7000
Wire Wire Line
	1700 7200 1850 7200
Connection ~ 1850 7200
Wire Wire Line
	1850 7200 1850 7100
Wire Wire Line
	1700 7300 1850 7300
Connection ~ 1850 7300
Wire Wire Line
	1850 7300 1850 7200
Wire Wire Line
	1700 7400 1850 7400
Connection ~ 1850 7400
Wire Wire Line
	1850 7400 1850 7300
Wire Wire Line
	2000 5500 1850 5500
Connection ~ 1850 5500
Wire Wire Line
	2000 5600 1850 5600
Wire Wire Line
	2000 5700 1850 5700
Wire Wire Line
	2000 5800 1850 5800
Wire Wire Line
	2000 5900 1850 5900
Wire Wire Line
	2000 6000 1850 6000
Wire Wire Line
	2000 6100 1850 6100
Wire Wire Line
	2000 6200 1850 6200
Wire Wire Line
	2000 6300 1850 6300
Wire Wire Line
	2000 6400 1850 6400
Wire Wire Line
	2000 6500 1850 6500
Wire Wire Line
	2000 6600 1850 6600
Wire Wire Line
	2000 6700 1850 6700
Wire Wire Line
	2000 6800 1850 6800
Wire Wire Line
	2000 6900 1850 6900
Wire Wire Line
	1700 7000 1850 7000
Wire Wire Line
	2000 7000 1850 7000
Wire Wire Line
	2000 7100 1850 7100
Wire Wire Line
	2000 7200 1850 7200
Wire Wire Line
	2000 7300 1850 7300
Wire Wire Line
	2000 7400 1850 7400
$Comp
L power:GND #PWR?
U 1 1 600171D3
P 3150 7500
F 0 "#PWR?" H 3150 7250 50  0001 C CNN
F 1 "GND" H 3155 7327 50  0000 C CNN
F 2 "" H 3150 7500 50  0001 C CNN
F 3 "" H 3150 7500 50  0001 C CNN
	1    3150 7500
	1    0    0    -1  
$EndComp
Wire Wire Line
	3000 5500 3150 5500
Wire Wire Line
	3150 5500 3150 5600
Wire Wire Line
	3300 5500 3150 5500
Connection ~ 3150 5500
Wire Wire Line
	3000 5600 3150 5600
Connection ~ 3150 5600
Wire Wire Line
	3150 5600 3150 5700
Wire Wire Line
	3000 5700 3150 5700
Connection ~ 3150 5700
Wire Wire Line
	3150 5700 3150 5800
Wire Wire Line
	3000 5800 3150 5800
Connection ~ 3150 5800
Wire Wire Line
	3150 5800 3150 5900
Wire Wire Line
	3000 5900 3150 5900
Connection ~ 3150 5900
Wire Wire Line
	3150 5900 3150 6000
Wire Wire Line
	3000 6000 3150 6000
Connection ~ 3150 6000
Wire Wire Line
	3150 6000 3150 6100
Wire Wire Line
	3000 6100 3150 6100
Connection ~ 3150 6100
Wire Wire Line
	3150 6100 3150 6200
Wire Wire Line
	3000 6200 3150 6200
Connection ~ 3150 6200
Wire Wire Line
	3150 6200 3150 6300
Wire Wire Line
	3000 6300 3150 6300
Connection ~ 3150 6300
Wire Wire Line
	3150 6300 3150 6400
Wire Wire Line
	3000 6400 3150 6400
Connection ~ 3150 6400
Wire Wire Line
	3150 6400 3150 6500
Wire Wire Line
	3000 6500 3150 6500
Connection ~ 3150 6500
Wire Wire Line
	3150 6500 3150 6600
Wire Wire Line
	3000 6600 3150 6600
Connection ~ 3150 6600
Wire Wire Line
	3150 6600 3150 6700
Wire Wire Line
	3000 6700 3150 6700
Connection ~ 3150 6700
Wire Wire Line
	3150 6700 3150 6800
Wire Wire Line
	3000 6800 3150 6800
Connection ~ 3150 6800
Wire Wire Line
	3150 6800 3150 6900
Wire Wire Line
	3000 6900 3150 6900
Connection ~ 3150 6900
Wire Wire Line
	3150 6900 3150 7000
Wire Wire Line
	3000 7000 3150 7000
Connection ~ 3150 7000
Wire Wire Line
	3150 7000 3150 7100
Wire Wire Line
	3000 7100 3150 7100
Connection ~ 3150 7100
Wire Wire Line
	3150 7100 3150 7200
Wire Wire Line
	3000 7200 3150 7200
Connection ~ 3150 7200
Wire Wire Line
	3150 7200 3150 7300
Wire Wire Line
	3000 7300 3150 7300
Connection ~ 3150 7300
Wire Wire Line
	3150 7300 3150 7400
Wire Wire Line
	3000 7400 3150 7400
Connection ~ 3150 7400
Wire Wire Line
	3150 7400 3150 7500
Wire Wire Line
	3300 5600 3150 5600
Wire Wire Line
	3300 5700 3150 5700
Wire Wire Line
	3300 5800 3150 5800
Wire Wire Line
	3300 5900 3150 5900
Wire Wire Line
	3300 6000 3150 6000
Wire Wire Line
	3300 6100 3150 6100
Wire Wire Line
	3300 6200 3150 6200
Wire Wire Line
	3300 6300 3150 6300
Wire Wire Line
	3300 6400 3150 6400
Wire Wire Line
	3300 6500 3150 6500
Wire Wire Line
	3300 6600 3150 6600
Wire Wire Line
	3300 6700 3150 6700
Wire Wire Line
	3300 6800 3150 6800
Wire Wire Line
	3300 6900 3150 6900
Wire Wire Line
	3300 7000 3150 7000
Wire Wire Line
	3300 7100 3150 7100
Wire Wire Line
	3300 7200 3150 7200
Wire Wire Line
	3300 7300 3150 7300
Wire Wire Line
	3300 7400 3150 7400
$Comp
L power:GND #PWR?
U 1 1 60170F58
P 4450 7500
F 0 "#PWR?" H 4450 7250 50  0001 C CNN
F 1 "GND" H 4455 7327 50  0000 C CNN
F 2 "" H 4450 7500 50  0001 C CNN
F 3 "" H 4450 7500 50  0001 C CNN
	1    4450 7500
	1    0    0    -1  
$EndComp
Wire Wire Line
	4300 5500 4450 5500
Wire Wire Line
	4450 5500 4450 5600
Wire Wire Line
	4300 5600 4450 5600
Connection ~ 4450 5600
Wire Wire Line
	4450 5600 4450 5700
Wire Wire Line
	4300 5700 4450 5700
Connection ~ 4450 5700
Wire Wire Line
	4450 5700 4450 5800
Wire Wire Line
	4300 5800 4450 5800
Connection ~ 4450 5800
Wire Wire Line
	4450 5800 4450 5900
Wire Wire Line
	4300 5900 4450 5900
Connection ~ 4450 5900
Wire Wire Line
	4450 5900 4450 6000
Wire Wire Line
	4300 6000 4450 6000
Connection ~ 4450 6000
Wire Wire Line
	4450 6000 4450 6100
Wire Wire Line
	4300 6100 4450 6100
Connection ~ 4450 6100
Wire Wire Line
	4450 6100 4450 6200
Wire Wire Line
	4300 6200 4450 6200
Connection ~ 4450 6200
Wire Wire Line
	4450 6200 4450 6300
Wire Wire Line
	4300 6300 4450 6300
Connection ~ 4450 6300
Wire Wire Line
	4450 6300 4450 6400
Wire Wire Line
	4300 6400 4450 6400
Connection ~ 4450 6400
Wire Wire Line
	4450 6400 4450 6500
Wire Wire Line
	4300 6500 4450 6500
Connection ~ 4450 6500
Wire Wire Line
	4450 6500 4450 6600
Wire Wire Line
	4300 6600 4450 6600
Connection ~ 4450 6600
Wire Wire Line
	4450 6600 4450 6700
Wire Wire Line
	4300 6700 4450 6700
Connection ~ 4450 6700
Wire Wire Line
	4450 6700 4450 6800
Wire Wire Line
	4300 6800 4450 6800
Connection ~ 4450 6800
Wire Wire Line
	4450 6800 4450 6900
Wire Wire Line
	4300 6900 4450 6900
Connection ~ 4450 6900
Wire Wire Line
	4450 6900 4450 7000
Wire Wire Line
	4300 7000 4450 7000
Connection ~ 4450 7000
Wire Wire Line
	4450 7000 4450 7100
Wire Wire Line
	4300 7100 4450 7100
Connection ~ 4450 7100
Wire Wire Line
	4450 7100 4450 7200
Wire Wire Line
	4300 7200 4450 7200
Connection ~ 4450 7200
Wire Wire Line
	4450 7200 4450 7300
Wire Wire Line
	4300 7300 4450 7300
Connection ~ 4450 7300
Wire Wire Line
	4450 7300 4450 7400
Wire Wire Line
	4300 7400 4450 7400
Connection ~ 4450 7400
Wire Wire Line
	4450 7400 4450 7500
Wire Wire Line
	4600 7000 4450 7000
Wire Wire Line
	4600 7100 4450 7100
Wire Wire Line
	4600 7200 4450 7200
Wire Wire Line
	4600 7300 4450 7300
Wire Wire Line
	4600 7400 4450 7400
$Comp
L power:GND #PWR?
U 1 1 60288E1A
P 5700 7500
F 0 "#PWR?" H 5700 7250 50  0001 C CNN
F 1 "GND" H 5705 7327 50  0000 C CNN
F 2 "" H 5700 7500 50  0001 C CNN
F 3 "" H 5700 7500 50  0001 C CNN
	1    5700 7500
	1    0    0    -1  
$EndComp
Wire Wire Line
	5600 7000 5700 7000
Wire Wire Line
	5700 7000 5700 7100
Wire Wire Line
	5600 7100 5700 7100
Connection ~ 5700 7100
Wire Wire Line
	5700 7100 5700 7200
Wire Wire Line
	5600 7200 5700 7200
Connection ~ 5700 7200
Wire Wire Line
	5700 7200 5700 7300
Wire Wire Line
	5600 7300 5700 7300
Connection ~ 5700 7300
Wire Wire Line
	5700 7300 5700 7400
Wire Wire Line
	5600 7400 5700 7400
Connection ~ 5700 7400
Wire Wire Line
	5700 7400 5700 7500
Wire Wire Line
	1150 1150 1050 1150
Wire Wire Line
	1050 1150 1050 1250
Wire Wire Line
	1050 2950 1150 2950
Connection ~ 1050 1150
Wire Wire Line
	1150 2850 1050 2850
Connection ~ 1050 2850
Wire Wire Line
	1050 2850 1050 2950
Wire Wire Line
	1150 2750 1050 2750
Connection ~ 1050 2750
Wire Wire Line
	1050 2750 1050 2850
Wire Wire Line
	1150 2650 1050 2650
Connection ~ 1050 2650
Wire Wire Line
	1050 2650 1050 2750
Wire Wire Line
	1150 2550 1050 2550
Connection ~ 1050 2550
Wire Wire Line
	1050 2550 1050 2650
Wire Wire Line
	1150 2450 1050 2450
Connection ~ 1050 2450
Wire Wire Line
	1050 2450 1050 2550
Wire Wire Line
	1150 2350 1050 2350
Connection ~ 1050 2350
Wire Wire Line
	1050 2350 1050 2450
Wire Wire Line
	1150 2250 1050 2250
Connection ~ 1050 2250
Wire Wire Line
	1050 2250 1050 2350
Wire Wire Line
	1150 2150 1050 2150
Connection ~ 1050 2150
Wire Wire Line
	1050 2150 1050 2250
Wire Wire Line
	1150 2050 1050 2050
Connection ~ 1050 2050
Wire Wire Line
	1050 2050 1050 2150
Wire Wire Line
	1150 1950 1050 1950
Connection ~ 1050 1950
Wire Wire Line
	1050 1950 1050 2050
Wire Wire Line
	1050 1850 1150 1850
Connection ~ 1050 1850
Wire Wire Line
	1050 1850 1050 1950
Wire Wire Line
	1150 1750 1050 1750
Connection ~ 1050 1750
Wire Wire Line
	1050 1750 1050 1850
Wire Wire Line
	1150 1650 1050 1650
Connection ~ 1050 1650
Wire Wire Line
	1050 1650 1050 1750
Wire Wire Line
	1150 1550 1050 1550
Connection ~ 1050 1550
Wire Wire Line
	1050 1550 1050 1650
Wire Wire Line
	1150 1450 1050 1450
Connection ~ 1050 1450
Wire Wire Line
	1050 1450 1050 1550
Wire Wire Line
	1150 1350 1050 1350
Connection ~ 1050 1350
Wire Wire Line
	1050 1350 1050 1450
Wire Wire Line
	1150 1250 1050 1250
Connection ~ 1050 1250
Wire Wire Line
	1050 1250 1050 1350
Wire Wire Line
	1050 1050 1050 1150
Wire Wire Line
	2150 1150 2250 1150
Wire Wire Line
	2250 1150 2250 1050
Wire Wire Line
	2150 2950 2250 2950
Wire Wire Line
	2250 2950 2250 2850
Connection ~ 2250 1150
Wire Wire Line
	2150 1250 2250 1250
Connection ~ 2250 1250
Wire Wire Line
	2250 1250 2250 1150
Wire Wire Line
	2150 1350 2250 1350
Connection ~ 2250 1350
Wire Wire Line
	2250 1350 2250 1250
Wire Wire Line
	2150 1450 2250 1450
Connection ~ 2250 1450
Wire Wire Line
	2250 1450 2250 1350
Wire Wire Line
	2150 1550 2250 1550
Connection ~ 2250 1550
Wire Wire Line
	2250 1550 2250 1450
Wire Wire Line
	2150 1650 2250 1650
Connection ~ 2250 1650
Wire Wire Line
	2250 1650 2250 1550
Wire Wire Line
	2150 1750 2250 1750
Connection ~ 2250 1750
Wire Wire Line
	2250 1750 2250 1650
Wire Wire Line
	2150 1850 2250 1850
Connection ~ 2250 1850
Wire Wire Line
	2250 1850 2250 1750
Wire Wire Line
	2150 1950 2250 1950
Connection ~ 2250 1950
Wire Wire Line
	2250 1950 2250 1850
Wire Wire Line
	2150 2050 2250 2050
Connection ~ 2250 2050
Wire Wire Line
	2250 2050 2250 1950
Wire Wire Line
	2150 2150 2250 2150
Connection ~ 2250 2150
Wire Wire Line
	2250 2150 2250 2050
Wire Wire Line
	2150 2250 2250 2250
Connection ~ 2250 2250
Wire Wire Line
	2250 2250 2250 2150
Wire Wire Line
	2150 2350 2250 2350
Connection ~ 2250 2350
Wire Wire Line
	2250 2350 2250 2250
Wire Wire Line
	2150 2450 2250 2450
Connection ~ 2250 2450
Wire Wire Line
	2250 2450 2250 2350
Wire Wire Line
	2150 2550 2250 2550
Connection ~ 2250 2550
Wire Wire Line
	2250 2550 2250 2450
Wire Wire Line
	2150 2650 2250 2650
Connection ~ 2250 2650
Wire Wire Line
	2250 2650 2250 2550
Wire Wire Line
	2150 2750 2250 2750
Connection ~ 2250 2750
Wire Wire Line
	2250 2750 2250 2650
Wire Wire Line
	2150 2850 2250 2850
Connection ~ 2250 2850
Wire Wire Line
	2250 2850 2250 2750
Wire Wire Line
	4550 6300 4450 6300
$Comp
L power_add:+0V9 #PWR?
U 1 1 5F92A5B6
P 1050 1050
F 0 "#PWR?" H 1050 900 50  0001 C CNN
F 1 "+0V9" H 1065 1223 50  0000 C CNN
F 2 "" H 1050 1050 50  0001 C CNN
F 3 "" H 1050 1050 50  0001 C CNN
	1    1050 1050
	1    0    0    -1  
$EndComp
$Comp
L power_add:+0V9 #PWR?
U 1 1 5F92EA13
P 2250 1050
F 0 "#PWR?" H 2250 900 50  0001 C CNN
F 1 "+0V9" H 2265 1223 50  0000 C CNN
F 2 "" H 2250 1050 50  0001 C CNN
F 3 "" H 2250 1050 50  0001 C CNN
	1    2250 1050
	1    0    0    -1  
$EndComp
Wire Wire Line
	2700 3050 2600 3050
Wire Wire Line
	2250 3050 2250 2950
Connection ~ 2250 2950
Wire Wire Line
	2700 3150 2600 3150
Wire Wire Line
	2600 3150 2600 3050
Connection ~ 2600 3050
Wire Wire Line
	2600 3050 2250 3050
Wire Wire Line
	4500 3050 4650 3050
Wire Wire Line
	4650 3050 4650 3150
Wire Wire Line
	4650 3350 2600 3350
Wire Wire Line
	2600 3350 2600 3150
Connection ~ 2600 3150
Wire Wire Line
	4500 3150 4650 3150
Connection ~ 4650 3150
Wire Wire Line
	4650 3150 4650 3350
$EndSCHEMATC
