EESchema Schematic File Version 4
EELAYER 30 0
EELAYER END
$Descr A4 11693 8268
encoding utf-8
Sheet 1 5
Title ""
Date ""
Rev ""
Comp ""
Comment1 ""
Comment2 ""
Comment3 ""
Comment4 ""
$EndDescr
$Comp
L 10cx085:10CX085YU484E6G U1
U 1 1 5F853447
P 2650 1000
F 0 "U1" H 3450 1290 60  0000 C CNN
F 1 "10CX085YU484E6G" H 3450 1184 60  0000 C CNN
F 2 "UBGA484:BGA-484_22x22_19.0x19.0mm" H 2850 1050 60  0001 L CNN
F 3 "" H 2850 850 60  0001 L CNN
F 4 "10CX085YU484E6G" H 2850 950 60  0001 L CNN "manf#"
	1    2650 1000
	1    0    0    -1  
$EndComp
$Comp
L 10cx085:10CX085YU484E6G U1
U 3 1 5F8AEC72
P 1300 3950
F 0 "U1" H 2200 4240 60  0000 C CNN
F 1 "10CX085YU484E6G" H 2200 4134 60  0000 C CNN
F 2 "UBGA484:BGA-484_22x22_19.0x19.0mm" H 1500 4000 60  0001 L CNN
F 3 "" H 1500 3800 60  0001 L CNN
F 4 "10CX085YU484E6G" H 1500 3900 60  0001 L CNN "manf#"
	3    1300 3950
	1    0    0    -1  
$EndComp
$Comp
L 10cx085:10CX085YU484E6G U1
U 4 1 5F8BC6E9
P 3200 3950
F 0 "U1" H 4100 4240 60  0000 C CNN
F 1 "10CX085YU484E6G" H 4100 4134 60  0000 C CNN
F 2 "UBGA484:BGA-484_22x22_19.0x19.0mm" H 3400 4000 60  0001 L CNN
F 3 "" H 3400 3800 60  0001 L CNN
F 4 "10CX085YU484E6G" H 3400 3900 60  0001 L CNN "manf#"
	4    3200 3950
	1    0    0    -1  
$EndComp
$Comp
L 10cx085:10CX085YU484E6G U1
U 5 1 5F8E045A
P 5250 3950
F 0 "U1" H 6150 4240 60  0000 C CNN
F 1 "10CX085YU484E6G" H 6150 4134 60  0000 C CNN
F 2 "UBGA484:BGA-484_22x22_19.0x19.0mm" H 5450 4000 60  0001 L CNN
F 3 "" H 5450 3800 60  0001 L CNN
F 4 "10CX085YU484E6G" H 5450 3900 60  0001 L CNN "manf#"
	5    5250 3950
	1    0    0    -1  
$EndComp
$Comp
L 10cx085:10CX085YU484E6G U1
U 6 1 5F8FBF6C
P 7200 3950
F 0 "U1" H 8100 4240 60  0000 C CNN
F 1 "10CX085YU484E6G" H 8100 4134 60  0000 C CNN
F 2 "UBGA484:BGA-484_22x22_19.0x19.0mm" H 7400 4000 60  0001 L CNN
F 3 "" H 7400 3800 60  0001 L CNN
F 4 "10CX085YU484E6G" H 7400 3900 60  0001 L CNN "manf#"
	6    7200 3950
	1    0    0    -1  
$EndComp
$Comp
L 10cx085:10CX085YU484E6G U1
U 7 1 5F910408
P 750 900
F 0 "U1" H 1600 1190 60  0000 C CNN
F 1 "10CX085YU484E6G" H 1600 1084 60  0000 C CNN
F 2 "UBGA484:BGA-484_22x22_19.0x19.0mm" H 950 950 60  0001 L CNN
F 3 "" H 950 750 60  0001 L CNN
F 4 "10CX085YU484E6G" H 950 850 60  0001 L CNN "manf#"
	7    750  900 
	1    0    0    -1  
$EndComp
$Sheet
S 9600 650  1200 1300
U 5FA8AFCC
F0 "Power" 50
F1 "power.sch" 50
$EndSheet
$Sheet
S 9850 2200 950  1050
U 60BBDBFB
F0 "XCVR" 50
F1 "xcvr.sch" 50
$EndSheet
$EndSCHEMATC
