EESchema Schematic File Version 4
EELAYER 30 0
EELAYER END
$Descr A4 11693 8268
encoding utf-8
Sheet 4 5
Title ""
Date ""
Rev ""
Comp ""
Comment1 ""
Comment2 ""
Comment3 ""
Comment4 ""
$EndDescr
$Comp
L Interface_Optical:SFP+ J?
U 1 1 5FD709E1
P 4350 3250
AR Path="/60BBDBFB/5FD709E1" Ref="J?"  Part="1" 
AR Path="/60BBDBFB/5FD44D44/5FD709E1" Ref="J?"  Part="1" 
AR Path="/60BBDBFB/5FE02493/5FD709E1" Ref="J?"  Part="1" 
AR Path="/60BBDBFB/5FE91FD8/5FD709E1" Ref="J?"  Part="1" 
F 0 "J?" H 4350 4131 50  0000 C CNN
F 1 "SFP+" H 4350 4040 50  0000 C CNN
F 2 "Connector:Connector_SFP_and_Cage" H 4350 2400 50  0001 C CNN
F 3 "https://members.snia.org/document/dl/25892" H 3900 3900 50  0001 C CNN
	1    4350 3250
	1    0    0    -1  
$EndComp
Wire Wire Line
	4150 3950 4150 4050
Wire Wire Line
	4150 4050 4250 4050
Wire Wire Line
	4350 4050 4350 3950
Wire Wire Line
	4250 3950 4250 4050
Connection ~ 4250 4050
Wire Wire Line
	4250 4050 4350 4050
Wire Wire Line
	4250 4050 4250 4150
$Comp
L power:GND #PWR?
U 1 1 5FD709EE
P 4250 4150
AR Path="/60BBDBFB/5FD709EE" Ref="#PWR?"  Part="1" 
AR Path="/60BBDBFB/5FD44D44/5FD709EE" Ref="#PWR?"  Part="1" 
AR Path="/60BBDBFB/5FE02493/5FD709EE" Ref="#PWR?"  Part="1" 
AR Path="/60BBDBFB/5FE91FD8/5FD709EE" Ref="#PWR?"  Part="1" 
F 0 "#PWR?" H 4250 3900 50  0001 C CNN
F 1 "GND" H 4255 3977 50  0000 C CNN
F 2 "" H 4250 4150 50  0001 C CNN
F 3 "" H 4250 4150 50  0001 C CNN
	1    4250 4150
	1    0    0    -1  
$EndComp
$Comp
L Device:C C?
U 1 1 5FD709F4
P 1100 1450
AR Path="/60BBDBFB/5FD709F4" Ref="C?"  Part="1" 
AR Path="/60BBDBFB/5FD44D44/5FD709F4" Ref="C?"  Part="1" 
AR Path="/60BBDBFB/5FE02493/5FD709F4" Ref="C?"  Part="1" 
AR Path="/60BBDBFB/5FE91FD8/5FD709F4" Ref="C?"  Part="1" 
F 0 "C?" H 1215 1496 50  0000 L CNN
F 1 "100n" H 1215 1405 50  0000 L CNN
F 2 "" H 1138 1300 50  0001 C CNN
F 3 "~" H 1100 1450 50  0001 C CNN
	1    1100 1450
	-1   0    0    -1  
$EndComp
$Comp
L Device:CP C?
U 1 1 5FD709FA
P 1500 1450
AR Path="/60BBDBFB/5FD709FA" Ref="C?"  Part="1" 
AR Path="/60BBDBFB/5FD44D44/5FD709FA" Ref="C?"  Part="1" 
AR Path="/60BBDBFB/5FE02493/5FD709FA" Ref="C?"  Part="1" 
AR Path="/60BBDBFB/5FE91FD8/5FD709FA" Ref="C?"  Part="1" 
F 0 "C?" H 1618 1496 50  0000 L CNN
F 1 "22u" H 1618 1405 50  0000 L CNN
F 2 "" H 1538 1300 50  0001 C CNN
F 3 "~" H 1500 1450 50  0001 C CNN
	1    1500 1450
	-1   0    0    -1  
$EndComp
$Comp
L Device:L L?
U 1 1 5FD70A00
P 1800 1000
AR Path="/60BBDBFB/5FD70A00" Ref="L?"  Part="1" 
AR Path="/60BBDBFB/5FD44D44/5FD70A00" Ref="L?"  Part="1" 
AR Path="/60BBDBFB/5FE02493/5FD70A00" Ref="L?"  Part="1" 
AR Path="/60BBDBFB/5FE91FD8/5FD70A00" Ref="L?"  Part="1" 
F 0 "L?" V 1990 1000 50  0000 C CNN
F 1 "4u7" V 1899 1000 50  0000 C CNN
F 2 "" H 1800 1000 50  0001 C CNN
F 3 "~" H 1800 1000 50  0001 C CNN
	1    1800 1000
	0    -1   -1   0   
$EndComp
$Comp
L Device:C C?
U 1 1 5FD70A06
P 2100 1150
AR Path="/60BBDBFB/5FD70A06" Ref="C?"  Part="1" 
AR Path="/60BBDBFB/5FD44D44/5FD70A06" Ref="C?"  Part="1" 
AR Path="/60BBDBFB/5FE02493/5FD70A06" Ref="C?"  Part="1" 
AR Path="/60BBDBFB/5FE91FD8/5FD70A06" Ref="C?"  Part="1" 
F 0 "C?" H 2215 1196 50  0000 L CNN
F 1 "100n" H 2215 1105 50  0000 L CNN
F 2 "" H 2138 1000 50  0001 C CNN
F 3 "~" H 2100 1150 50  0001 C CNN
	1    2100 1150
	-1   0    0    -1  
$EndComp
$Comp
L Device:CP C?
U 1 1 5FD70A0C
P 2450 1150
AR Path="/60BBDBFB/5FD70A0C" Ref="C?"  Part="1" 
AR Path="/60BBDBFB/5FD44D44/5FD70A0C" Ref="C?"  Part="1" 
AR Path="/60BBDBFB/5FE02493/5FD70A0C" Ref="C?"  Part="1" 
AR Path="/60BBDBFB/5FE91FD8/5FD70A0C" Ref="C?"  Part="1" 
F 0 "C?" H 2568 1196 50  0000 L CNN
F 1 "22u" H 2568 1105 50  0000 L CNN
F 2 "" H 2488 1000 50  0001 C CNN
F 3 "~" H 2450 1150 50  0001 C CNN
	1    2450 1150
	-1   0    0    -1  
$EndComp
Wire Wire Line
	1950 1000 2100 1000
Wire Wire Line
	2100 1000 2450 1000
Connection ~ 2100 1000
Wire Wire Line
	2450 1300 2100 1300
Wire Wire Line
	1100 1300 1500 1300
Wire Wire Line
	1100 1600 1500 1600
$Comp
L Device:L L?
U 1 1 5FD70A18
P 1800 1550
AR Path="/60BBDBFB/5FD70A18" Ref="L?"  Part="1" 
AR Path="/60BBDBFB/5FD44D44/5FD70A18" Ref="L?"  Part="1" 
AR Path="/60BBDBFB/5FE02493/5FD70A18" Ref="L?"  Part="1" 
AR Path="/60BBDBFB/5FE91FD8/5FD70A18" Ref="L?"  Part="1" 
F 0 "L?" V 1990 1550 50  0000 C CNN
F 1 "4u7" V 1899 1550 50  0000 C CNN
F 2 "" H 1800 1550 50  0001 C CNN
F 3 "~" H 1800 1550 50  0001 C CNN
	1    1800 1550
	0    -1   -1   0   
$EndComp
$Comp
L Device:C C?
U 1 1 5FD70A1E
P 2100 1700
AR Path="/60BBDBFB/5FD70A1E" Ref="C?"  Part="1" 
AR Path="/60BBDBFB/5FD44D44/5FD70A1E" Ref="C?"  Part="1" 
AR Path="/60BBDBFB/5FE02493/5FD70A1E" Ref="C?"  Part="1" 
AR Path="/60BBDBFB/5FE91FD8/5FD70A1E" Ref="C?"  Part="1" 
F 0 "C?" H 2215 1746 50  0000 L CNN
F 1 "100n" H 2215 1655 50  0000 L CNN
F 2 "" H 2138 1550 50  0001 C CNN
F 3 "~" H 2100 1700 50  0001 C CNN
	1    2100 1700
	-1   0    0    -1  
$EndComp
$Comp
L Device:CP C?
U 1 1 5FD70A24
P 2450 1700
AR Path="/60BBDBFB/5FD70A24" Ref="C?"  Part="1" 
AR Path="/60BBDBFB/5FD44D44/5FD70A24" Ref="C?"  Part="1" 
AR Path="/60BBDBFB/5FE02493/5FD70A24" Ref="C?"  Part="1" 
AR Path="/60BBDBFB/5FE91FD8/5FD70A24" Ref="C?"  Part="1" 
F 0 "C?" H 2568 1746 50  0000 L CNN
F 1 "22u" H 2568 1655 50  0000 L CNN
F 2 "" H 2488 1550 50  0001 C CNN
F 3 "~" H 2450 1700 50  0001 C CNN
	1    2450 1700
	-1   0    0    -1  
$EndComp
Wire Wire Line
	1950 1550 2100 1550
Wire Wire Line
	2100 1550 2450 1550
Connection ~ 2100 1550
Wire Wire Line
	2450 1850 2100 1850
$Comp
L power:GND #PWR?
U 1 1 5FD70A2E
P 1100 1600
AR Path="/60BBDBFB/5FD70A2E" Ref="#PWR?"  Part="1" 
AR Path="/60BBDBFB/5FD44D44/5FD70A2E" Ref="#PWR?"  Part="1" 
AR Path="/60BBDBFB/5FE02493/5FD70A2E" Ref="#PWR?"  Part="1" 
AR Path="/60BBDBFB/5FE91FD8/5FD70A2E" Ref="#PWR?"  Part="1" 
F 0 "#PWR?" H 1100 1350 50  0001 C CNN
F 1 "GND" H 1105 1427 50  0000 C CNN
F 2 "" H 1100 1600 50  0001 C CNN
F 3 "" H 1100 1600 50  0001 C CNN
	1    1100 1600
	1    0    0    -1  
$EndComp
Connection ~ 1100 1600
$Comp
L power:GND #PWR?
U 1 1 5FD70A35
P 2450 1850
AR Path="/60BBDBFB/5FD70A35" Ref="#PWR?"  Part="1" 
AR Path="/60BBDBFB/5FD44D44/5FD70A35" Ref="#PWR?"  Part="1" 
AR Path="/60BBDBFB/5FE02493/5FD70A35" Ref="#PWR?"  Part="1" 
AR Path="/60BBDBFB/5FE91FD8/5FD70A35" Ref="#PWR?"  Part="1" 
F 0 "#PWR?" H 2450 1600 50  0001 C CNN
F 1 "GND" H 2455 1677 50  0000 C CNN
F 2 "" H 2450 1850 50  0001 C CNN
F 3 "" H 2450 1850 50  0001 C CNN
	1    2450 1850
	1    0    0    -1  
$EndComp
$Comp
L power:GND #PWR?
U 1 1 5FD70A3B
P 2450 1300
AR Path="/60BBDBFB/5FD70A3B" Ref="#PWR?"  Part="1" 
AR Path="/60BBDBFB/5FD44D44/5FD70A3B" Ref="#PWR?"  Part="1" 
AR Path="/60BBDBFB/5FE02493/5FD70A3B" Ref="#PWR?"  Part="1" 
AR Path="/60BBDBFB/5FE91FD8/5FD70A3B" Ref="#PWR?"  Part="1" 
F 0 "#PWR?" H 2450 1050 50  0001 C CNN
F 1 "GND" H 2455 1127 50  0000 C CNN
F 2 "" H 2450 1300 50  0001 C CNN
F 3 "" H 2450 1300 50  0001 C CNN
	1    2450 1300
	1    0    0    -1  
$EndComp
Connection ~ 2450 1300
Connection ~ 2450 1850
$Comp
L power:+3.3V #PWR?
U 1 1 5FD70A43
P 1100 1300
AR Path="/60BBDBFB/5FD70A43" Ref="#PWR?"  Part="1" 
AR Path="/60BBDBFB/5FD44D44/5FD70A43" Ref="#PWR?"  Part="1" 
AR Path="/60BBDBFB/5FE02493/5FD70A43" Ref="#PWR?"  Part="1" 
AR Path="/60BBDBFB/5FE91FD8/5FD70A43" Ref="#PWR?"  Part="1" 
F 0 "#PWR?" H 1100 1150 50  0001 C CNN
F 1 "+3.3V" H 1115 1473 50  0000 C CNN
F 2 "" H 1100 1300 50  0001 C CNN
F 3 "" H 1100 1300 50  0001 C CNN
	1    1100 1300
	1    0    0    -1  
$EndComp
Connection ~ 1100 1300
Wire Wire Line
	2450 1000 2600 1000
Connection ~ 2450 1000
Wire Wire Line
	2450 1550 2600 1550
Connection ~ 2450 1550
Wire Wire Line
	1650 1000 1650 1300
Wire Wire Line
	1500 1300 1650 1300
Connection ~ 1500 1300
Connection ~ 1650 1300
Wire Wire Line
	1650 1300 1650 1550
Text Label 2600 1000 0    50   ~ 0
VCCT
Text Label 2600 1550 0    50   ~ 0
VCCR
Wire Wire Line
	4250 2550 4150 2550
Wire Wire Line
	4350 2550 4450 2550
Text Label 4150 2550 2    50   ~ 0
VCCT
Text Label 4450 2550 0    50   ~ 0
VCCR
Wire Wire Line
	4850 3050 4950 3050
Wire Wire Line
	4850 3150 4950 3150
Wire Wire Line
	4850 3350 4950 3350
Wire Wire Line
	4850 3450 4950 3450
Wire Wire Line
	4850 2850 4950 2850
Wire Wire Line
	3750 2950 3850 2950
Wire Wire Line
	3750 3050 3850 3050
Wire Wire Line
	3750 3150 3850 3150
Wire Wire Line
	3750 3350 3850 3350
Wire Wire Line
	3750 3450 3850 3450
Wire Wire Line
	3750 3550 3850 3550
Text Label 4950 2850 0    50   ~ 0
RX_LOS
Text Label 4850 3650 0    50   ~ 0
TX_FAULT
Text Label 3750 2950 2    50   ~ 0
SDA_3V3
Text Label 3750 3050 2    50   ~ 0
SCL_3V3
Text Label 3750 3150 2    50   ~ 0
MOD_ABS
Text Label 3750 3350 2    50   ~ 0
RS0
Text Label 3750 3450 2    50   ~ 0
RS1
Text Label 3750 3550 2    50   ~ 0
TX_DISABLE
$Comp
L Device:LED D?
U 1 1 5FD92826
P 1650 4650
AR Path="/60BBDBFB/5FD92826" Ref="D?"  Part="1" 
AR Path="/60BBDBFB/5FD44D44/5FD92826" Ref="D?"  Part="1" 
AR Path="/60BBDBFB/5FE02493/5FD92826" Ref="D?"  Part="1" 
AR Path="/60BBDBFB/5FE91FD8/5FD92826" Ref="D?"  Part="1" 
F 0 "D?" V 1689 4532 50  0000 R CNN
F 1 "LED" V 1598 4532 50  0000 R CNN
F 2 "" H 1650 4650 50  0001 C CNN
F 3 "~" H 1650 4650 50  0001 C CNN
	1    1650 4650
	0    -1   -1   0   
$EndComp
$Comp
L Device:LED D?
U 1 1 5FD9282C
P 2000 4650
AR Path="/60BBDBFB/5FD9282C" Ref="D?"  Part="1" 
AR Path="/60BBDBFB/5FD44D44/5FD9282C" Ref="D?"  Part="1" 
AR Path="/60BBDBFB/5FE02493/5FD9282C" Ref="D?"  Part="1" 
AR Path="/60BBDBFB/5FE91FD8/5FD9282C" Ref="D?"  Part="1" 
F 0 "D?" V 2039 4532 50  0000 R CNN
F 1 "LED" V 1948 4532 50  0000 R CNN
F 2 "" H 2000 4650 50  0001 C CNN
F 3 "~" H 2000 4650 50  0001 C CNN
	1    2000 4650
	0    -1   -1   0   
$EndComp
$Comp
L Device:R R?
U 1 1 5FD92832
P 1650 5050
AR Path="/60BBDBFB/5FD92832" Ref="R?"  Part="1" 
AR Path="/60BBDBFB/5FD44D44/5FD92832" Ref="R?"  Part="1" 
AR Path="/60BBDBFB/5FE02493/5FD92832" Ref="R?"  Part="1" 
AR Path="/60BBDBFB/5FE91FD8/5FD92832" Ref="R?"  Part="1" 
F 0 "R?" H 1720 5096 50  0000 L CNN
F 1 "390" H 1720 5005 50  0000 L CNN
F 2 "" V 1580 5050 50  0001 C CNN
F 3 "~" H 1650 5050 50  0001 C CNN
	1    1650 5050
	1    0    0    -1  
$EndComp
$Comp
L Device:R R?
U 1 1 5FD92838
P 2000 5050
AR Path="/60BBDBFB/5FD92838" Ref="R?"  Part="1" 
AR Path="/60BBDBFB/5FD44D44/5FD92838" Ref="R?"  Part="1" 
AR Path="/60BBDBFB/5FE02493/5FD92838" Ref="R?"  Part="1" 
AR Path="/60BBDBFB/5FE91FD8/5FD92838" Ref="R?"  Part="1" 
F 0 "R?" H 2070 5096 50  0000 L CNN
F 1 "390" H 2070 5005 50  0000 L CNN
F 2 "" V 1930 5050 50  0001 C CNN
F 3 "~" H 2000 5050 50  0001 C CNN
	1    2000 5050
	1    0    0    -1  
$EndComp
$Comp
L power:GND #PWR?
U 1 1 5FD9283E
P 1650 5300
AR Path="/60BBDBFB/5FD9283E" Ref="#PWR?"  Part="1" 
AR Path="/60BBDBFB/5FD44D44/5FD9283E" Ref="#PWR?"  Part="1" 
AR Path="/60BBDBFB/5FE02493/5FD9283E" Ref="#PWR?"  Part="1" 
AR Path="/60BBDBFB/5FE91FD8/5FD9283E" Ref="#PWR?"  Part="1" 
F 0 "#PWR?" H 1650 5050 50  0001 C CNN
F 1 "GND" H 1655 5127 50  0000 C CNN
F 2 "" H 1650 5300 50  0001 C CNN
F 3 "" H 1650 5300 50  0001 C CNN
	1    1650 5300
	1    0    0    -1  
$EndComp
Wire Wire Line
	1650 5300 1650 5250
Wire Wire Line
	2000 5200 2000 5250
Wire Wire Line
	2000 5250 1650 5250
Connection ~ 1650 5250
Wire Wire Line
	1650 5250 1650 5200
Wire Wire Line
	1650 4900 1650 4800
Wire Wire Line
	2000 4900 2000 4800
Wire Wire Line
	1650 4500 1650 4450
Wire Wire Line
	2000 4500 2000 4450
Text Label 1650 4450 1    50   ~ 0
LED1
Text Label 2000 4450 1    50   ~ 0
LED2
$Comp
L power:GND #PWR?
U 1 1 5FD9284F
P 2100 3950
AR Path="/60BBDBFB/5FD9284F" Ref="#PWR?"  Part="1" 
AR Path="/60BBDBFB/5FD44D44/5FD9284F" Ref="#PWR?"  Part="1" 
AR Path="/60BBDBFB/5FE02493/5FD9284F" Ref="#PWR?"  Part="1" 
AR Path="/60BBDBFB/5FE91FD8/5FD9284F" Ref="#PWR?"  Part="1" 
F 0 "#PWR?" H 2100 3700 50  0001 C CNN
F 1 "GND" H 2105 3777 50  0000 C CNN
F 2 "" H 2100 3950 50  0001 C CNN
F 3 "" H 2100 3950 50  0001 C CNN
	1    2100 3950
	1    0    0    -1  
$EndComp
Wire Wire Line
	2100 3950 2100 3900
$Comp
L power:+3.3V #PWR?
U 1 1 5FD92856
P 1750 2550
AR Path="/60BBDBFB/5FD92856" Ref="#PWR?"  Part="1" 
AR Path="/60BBDBFB/5FD44D44/5FD92856" Ref="#PWR?"  Part="1" 
AR Path="/60BBDBFB/5FE02493/5FD92856" Ref="#PWR?"  Part="1" 
AR Path="/60BBDBFB/5FE91FD8/5FD92856" Ref="#PWR?"  Part="1" 
F 0 "#PWR?" H 1750 2400 50  0001 C CNN
F 1 "+3.3V" H 1765 2723 50  0000 C CNN
F 2 "" H 1750 2550 50  0001 C CNN
F 3 "" H 1750 2550 50  0001 C CNN
	1    1750 2550
	1    0    0    -1  
$EndComp
Wire Wire Line
	2100 2600 1750 2600
Wire Wire Line
	1750 2600 1750 2550
Wire Wire Line
	1700 3400 1650 3400
Wire Wire Line
	1650 3400 1650 3500
Wire Wire Line
	1700 3600 1650 3600
Connection ~ 1650 3600
Wire Wire Line
	1650 3600 1650 3650
Wire Wire Line
	1700 3500 1650 3500
Connection ~ 1650 3500
Wire Wire Line
	1650 3500 1650 3600
$Comp
L power:GND #PWR?
U 1 1 5FD92866
P 1650 3650
AR Path="/60BBDBFB/5FD92866" Ref="#PWR?"  Part="1" 
AR Path="/60BBDBFB/5FD44D44/5FD92866" Ref="#PWR?"  Part="1" 
AR Path="/60BBDBFB/5FE02493/5FD92866" Ref="#PWR?"  Part="1" 
AR Path="/60BBDBFB/5FE91FD8/5FD92866" Ref="#PWR?"  Part="1" 
F 0 "#PWR?" H 1650 3400 50  0001 C CNN
F 1 "GND" H 1655 3477 50  0000 C CNN
F 2 "" H 1650 3650 50  0001 C CNN
F 3 "" H 1650 3650 50  0001 C CNN
	1    1650 3650
	1    0    0    -1  
$EndComp
$Comp
L Interface_Expansion:TCA9534 U?
U 1 1 5FD9286C
P 2100 3200
AR Path="/60BBDBFB/5FD9286C" Ref="U?"  Part="1" 
AR Path="/60BBDBFB/5FD44D44/5FD9286C" Ref="U?"  Part="1" 
AR Path="/60BBDBFB/5FE02493/5FD9286C" Ref="U?"  Part="1" 
AR Path="/60BBDBFB/5FE91FD8/5FD9286C" Ref="U?"  Part="1" 
F 0 "U?" H 2100 3981 50  0000 C CNN
F 1 "TCA9534" H 2100 3890 50  0000 C CNN
F 2 "" H 3050 2650 50  0001 C CNN
F 3 "http://www.ti.com/lit/ds/symlink/tca9534.pdf" H 2200 3100 50  0001 C CNN
	1    2100 3200
	1    0    0    -1  
$EndComp
Wire Wire Line
	1700 2900 1600 2900
Wire Wire Line
	1700 3000 1600 3000
Wire Wire Line
	1700 3100 1100 3100
Wire Wire Line
	2500 2900 2600 2900
Wire Wire Line
	2500 3000 2600 3000
Wire Wire Line
	2500 3100 2600 3100
Wire Wire Line
	2500 3200 2600 3200
Wire Wire Line
	2500 3300 2600 3300
Wire Wire Line
	2500 3400 2600 3400
Wire Wire Line
	2500 3500 2600 3500
Wire Wire Line
	2500 3600 2600 3600
Text Label 1600 2900 2    50   ~ 0
SCL_3V3
Text Label 1600 3000 2    50   ~ 0
SDA_3V3
Text Label 2600 2900 0    50   ~ 0
LED1
Text Label 2600 3000 0    50   ~ 0
LED2
Text Label 2600 3100 0    50   ~ 0
TX_DISABLE
Text Label 2600 3200 0    50   ~ 0
TX_FAULT
Text Label 2600 3500 0    50   ~ 0
RS0
Text Label 2600 3300 0    50   ~ 0
RS1
Text Label 2600 3400 0    50   ~ 0
RX_LOS
Text Label 2600 3600 0    50   ~ 0
MOD_ABS
Text HLabel 4950 3050 2    50   Input ~ 0
RX+
Text HLabel 4950 3150 2    50   Input ~ 0
RX-
Text HLabel 4950 3350 2    50   Input ~ 0
TX+
Text HLabel 4950 3450 2    50   Input ~ 0
TX-
Text HLabel 950  3100 0    50   Input ~ 0
INT_3V3
$Comp
L Device:R R?
U 1 1 5FDD42C1
P 1100 2900
AR Path="/60BBDBFB/5FDD42C1" Ref="R?"  Part="1" 
AR Path="/60BBDBFB/5FD44D44/5FDD42C1" Ref="R?"  Part="1" 
AR Path="/60BBDBFB/5FE02493/5FDD42C1" Ref="R?"  Part="1" 
AR Path="/60BBDBFB/5FE91FD8/5FDD42C1" Ref="R?"  Part="1" 
F 0 "R?" H 1170 2946 50  0000 L CNN
F 1 "4k7" H 1170 2855 50  0000 L CNN
F 2 "" V 1030 2900 50  0001 C CNN
F 3 "~" H 1100 2900 50  0001 C CNN
	1    1100 2900
	1    0    0    -1  
$EndComp
Wire Wire Line
	1100 3050 1100 3100
Connection ~ 1100 3100
Wire Wire Line
	1100 3100 950  3100
$Comp
L power:+3.3V #PWR?
U 1 1 5FDD86C9
P 1100 2650
AR Path="/60BBDBFB/5FDD86C9" Ref="#PWR?"  Part="1" 
AR Path="/60BBDBFB/5FD44D44/5FDD86C9" Ref="#PWR?"  Part="1" 
AR Path="/60BBDBFB/5FE02493/5FDD86C9" Ref="#PWR?"  Part="1" 
AR Path="/60BBDBFB/5FE91FD8/5FDD86C9" Ref="#PWR?"  Part="1" 
F 0 "#PWR?" H 1100 2500 50  0001 C CNN
F 1 "+3.3V" H 1115 2823 50  0000 C CNN
F 2 "" H 1100 2650 50  0001 C CNN
F 3 "" H 1100 2650 50  0001 C CNN
	1    1100 2650
	1    0    0    -1  
$EndComp
Wire Wire Line
	1100 2650 1100 2750
$Comp
L KICAD-OPEN-LIBS:FXMA2102 U?
U 1 1 5FE2EB72
P 4550 1500
AR Path="/60BBDBFB/5FD44D44/5FE2EB72" Ref="U?"  Part="1" 
AR Path="/60BBDBFB/5FE91FD8/5FE2EB72" Ref="U?"  Part="1" 
F 0 "U?" H 4537 1093 40  0000 C CNN
F 1 "FXMA2102" H 4537 1017 40  0000 C CNN
F 2 "" H 5050 2150 40  0000 C CNN
F 3 "" H 5050 2150 40  0000 C CNN
	1    4550 1500
	1    0    0    -1  
$EndComp
$Comp
L Device:C C?
U 1 1 5FE3121E
P 4200 1100
AR Path="/60BBDBFB/5FE3121E" Ref="C?"  Part="1" 
AR Path="/60BBDBFB/5FD44D44/5FE3121E" Ref="C?"  Part="1" 
AR Path="/60BBDBFB/5FE02493/5FE3121E" Ref="C?"  Part="1" 
AR Path="/60BBDBFB/5FE91FD8/5FE3121E" Ref="C?"  Part="1" 
F 0 "C?" H 4315 1146 50  0000 L CNN
F 1 "100n" H 4315 1055 50  0000 L CNN
F 2 "" H 4238 950 50  0001 C CNN
F 3 "~" H 4200 1100 50  0001 C CNN
	1    4200 1100
	-1   0    0    -1  
$EndComp
$Comp
L Device:C C?
U 1 1 5FE358F4
P 5050 1100
AR Path="/60BBDBFB/5FE358F4" Ref="C?"  Part="1" 
AR Path="/60BBDBFB/5FD44D44/5FE358F4" Ref="C?"  Part="1" 
AR Path="/60BBDBFB/5FE02493/5FE358F4" Ref="C?"  Part="1" 
AR Path="/60BBDBFB/5FE91FD8/5FE358F4" Ref="C?"  Part="1" 
F 0 "C?" H 5165 1146 50  0000 L CNN
F 1 "100n" H 5165 1055 50  0000 L CNN
F 2 "" H 5088 950 50  0001 C CNN
F 3 "~" H 5050 1100 50  0001 C CNN
	1    5050 1100
	-1   0    0    -1  
$EndComp
$Comp
L Device:R R?
U 1 1 5FE3898E
P 4000 1850
AR Path="/60BBDBFB/5FE3898E" Ref="R?"  Part="1" 
AR Path="/60BBDBFB/5FD44D44/5FE3898E" Ref="R?"  Part="1" 
AR Path="/60BBDBFB/5FE02493/5FE3898E" Ref="R?"  Part="1" 
AR Path="/60BBDBFB/5FE91FD8/5FE3898E" Ref="R?"  Part="1" 
F 0 "R?" V 3793 1850 50  0000 C CNN
F 1 "1k" V 3884 1850 50  0000 C CNN
F 2 "" V 3930 1850 50  0001 C CNN
F 3 "~" H 4000 1850 50  0001 C CNN
	1    4000 1850
	0    1    1    0   
$EndComp
$Comp
L power:GND #PWR?
U 1 1 5FE3A79A
P 4800 1950
AR Path="/60BBDBFB/5FE3A79A" Ref="#PWR?"  Part="1" 
AR Path="/60BBDBFB/5FD44D44/5FE3A79A" Ref="#PWR?"  Part="1" 
AR Path="/60BBDBFB/5FE02493/5FE3A79A" Ref="#PWR?"  Part="1" 
AR Path="/60BBDBFB/5FE91FD8/5FE3A79A" Ref="#PWR?"  Part="1" 
F 0 "#PWR?" H 4800 1700 50  0001 C CNN
F 1 "GND" H 4805 1777 50  0000 C CNN
F 2 "" H 4800 1950 50  0001 C CNN
F 3 "" H 4800 1950 50  0001 C CNN
	1    4800 1950
	1    0    0    -1  
$EndComp
$Comp
L power:+3.3V #PWR?
U 1 1 5FE3F05A
P 5050 900
AR Path="/60BBDBFB/5FE3F05A" Ref="#PWR?"  Part="1" 
AR Path="/60BBDBFB/5FD44D44/5FE3F05A" Ref="#PWR?"  Part="1" 
AR Path="/60BBDBFB/5FE02493/5FE3F05A" Ref="#PWR?"  Part="1" 
AR Path="/60BBDBFB/5FE91FD8/5FE3F05A" Ref="#PWR?"  Part="1" 
F 0 "#PWR?" H 5050 750 50  0001 C CNN
F 1 "+3.3V" H 5065 1073 50  0000 C CNN
F 2 "" H 5050 900 50  0001 C CNN
F 3 "" H 5050 900 50  0001 C CNN
	1    5050 900 
	1    0    0    -1  
$EndComp
Wire Wire Line
	4200 900  4200 950 
Wire Wire Line
	4200 950  3800 950 
Wire Wire Line
	3550 950  3550 1150
Connection ~ 4200 950 
Wire Wire Line
	3800 1150 3800 950 
Connection ~ 3800 950 
Wire Wire Line
	3800 950  3550 950 
$Comp
L power:+1V8 #PWR?
U 1 1 5FE44B87
P 4200 900
AR Path="/60BBDBFB/5FD44D44/5FE44B87" Ref="#PWR?"  Part="1" 
AR Path="/60BBDBFB/5FE91FD8/5FE44B87" Ref="#PWR?"  Part="1" 
F 0 "#PWR?" H 4200 750 50  0001 C CNN
F 1 "+1V8" H 4215 1073 50  0000 C CNN
F 2 "" H 4200 900 50  0001 C CNN
F 3 "" H 4200 900 50  0001 C CNN
	1    4200 900 
	1    0    0    -1  
$EndComp
Wire Wire Line
	5050 900  5050 950 
Wire Wire Line
	5300 1150 5300 950 
Wire Wire Line
	5300 950  5050 950 
Connection ~ 5050 950 
Wire Wire Line
	5300 950  5600 950 
Wire Wire Line
	5600 950  5600 1150
Connection ~ 5300 950 
$Comp
L power:+1V8 #PWR?
U 1 1 5FE4ABDA
P 3800 1850
AR Path="/60BBDBFB/5FD44D44/5FE4ABDA" Ref="#PWR?"  Part="1" 
AR Path="/60BBDBFB/5FE91FD8/5FE4ABDA" Ref="#PWR?"  Part="1" 
F 0 "#PWR?" H 3800 1700 50  0001 C CNN
F 1 "+1V8" H 3815 2023 50  0000 C CNN
F 2 "" H 3800 1850 50  0001 C CNN
F 3 "" H 3800 1850 50  0001 C CNN
	1    3800 1850
	1    0    0    -1  
$EndComp
Wire Wire Line
	3800 1850 3850 1850
$Comp
L power:GND #PWR?
U 1 1 5FE4D29D
P 4200 1250
AR Path="/60BBDBFB/5FE4D29D" Ref="#PWR?"  Part="1" 
AR Path="/60BBDBFB/5FD44D44/5FE4D29D" Ref="#PWR?"  Part="1" 
AR Path="/60BBDBFB/5FE02493/5FE4D29D" Ref="#PWR?"  Part="1" 
AR Path="/60BBDBFB/5FE91FD8/5FE4D29D" Ref="#PWR?"  Part="1" 
F 0 "#PWR?" H 4200 1000 50  0001 C CNN
F 1 "GND" H 4205 1077 50  0000 C CNN
F 2 "" H 4200 1250 50  0001 C CNN
F 3 "" H 4200 1250 50  0001 C CNN
	1    4200 1250
	1    0    0    -1  
$EndComp
$Comp
L power:GND #PWR?
U 1 1 5FE4D7B0
P 5050 1250
AR Path="/60BBDBFB/5FE4D7B0" Ref="#PWR?"  Part="1" 
AR Path="/60BBDBFB/5FD44D44/5FE4D7B0" Ref="#PWR?"  Part="1" 
AR Path="/60BBDBFB/5FE02493/5FE4D7B0" Ref="#PWR?"  Part="1" 
AR Path="/60BBDBFB/5FE91FD8/5FE4D7B0" Ref="#PWR?"  Part="1" 
F 0 "#PWR?" H 5050 1000 50  0001 C CNN
F 1 "GND" H 5055 1077 50  0000 C CNN
F 2 "" H 5050 1250 50  0001 C CNN
F 3 "" H 5050 1250 50  0001 C CNN
	1    5050 1250
	1    0    0    -1  
$EndComp
Wire Wire Line
	4450 1200 4450 950 
Wire Wire Line
	4450 950  4200 950 
Wire Wire Line
	4650 1200 4650 950 
Wire Wire Line
	4650 950  5050 950 
Wire Wire Line
	4850 1500 5300 1500
Wire Wire Line
	4850 1600 5600 1600
Wire Wire Line
	5300 1450 5300 1500
Connection ~ 5300 1500
Wire Wire Line
	5300 1500 5750 1500
Wire Wire Line
	5600 1450 5600 1600
Connection ~ 5600 1600
Wire Wire Line
	5600 1600 5750 1600
Wire Wire Line
	4250 1700 4200 1700
Wire Wire Line
	4200 1700 4200 1850
Wire Wire Line
	4200 1850 4150 1850
Wire Wire Line
	4250 1600 3550 1600
Wire Wire Line
	4250 1500 3800 1500
Wire Wire Line
	3800 1450 3800 1500
Connection ~ 3800 1500
Wire Wire Line
	3800 1500 3400 1500
Wire Wire Line
	3550 1450 3550 1600
Connection ~ 3550 1600
Wire Wire Line
	3550 1600 3400 1600
Wire Wire Line
	4550 1900 4800 1900
Wire Wire Line
	4800 1900 4800 1950
Text Label 5750 1500 0    50   ~ 0
SDA_3V3
Text Label 5750 1600 0    50   ~ 0
SCL_3V3
Text HLabel 3400 1500 0    50   Input ~ 0
SDA
Text HLabel 3400 1600 0    50   Input ~ 0
SCL
$Comp
L Device:R R?
U 1 1 5F87E9EB
P 6000 2950
AR Path="/60BBDBFB/5F87E9EB" Ref="R?"  Part="1" 
AR Path="/60BBDBFB/5FD44D44/5F87E9EB" Ref="R?"  Part="1" 
AR Path="/60BBDBFB/5FE02493/5F87E9EB" Ref="R?"  Part="1" 
AR Path="/60BBDBFB/5FE91FD8/5F87E9EB" Ref="R?"  Part="1" 
F 0 "R?" H 6070 2996 50  0000 L CNN
F 1 "4k7" H 6070 2905 50  0000 L CNN
F 2 "" V 5930 2950 50  0001 C CNN
F 3 "~" H 6000 2950 50  0001 C CNN
	1    6000 2950
	1    0    0    -1  
$EndComp
$Comp
L Device:R R?
U 1 1 5F887D84
P 7200 2950
AR Path="/60BBDBFB/5F887D84" Ref="R?"  Part="1" 
AR Path="/60BBDBFB/5FD44D44/5F887D84" Ref="R?"  Part="1" 
AR Path="/60BBDBFB/5FE02493/5F887D84" Ref="R?"  Part="1" 
AR Path="/60BBDBFB/5FE91FD8/5F887D84" Ref="R?"  Part="1" 
F 0 "R?" H 7270 2996 50  0000 L CNN
F 1 "1k" H 7270 2905 50  0000 L CNN
F 2 "" V 7130 2950 50  0001 C CNN
F 3 "~" H 7200 2950 50  0001 C CNN
	1    7200 2950
	1    0    0    -1  
$EndComp
Wire Wire Line
	6000 2800 6000 2750
Wire Wire Line
	6000 2750 6300 2750
Wire Wire Line
	7500 2750 7500 2800
Connection ~ 6000 2750
Wire Wire Line
	6000 2750 6000 2700
Wire Wire Line
	7200 2800 7200 2750
Connection ~ 7200 2750
Wire Wire Line
	7200 2750 7500 2750
Wire Wire Line
	6900 2800 6900 2750
Connection ~ 6900 2750
Wire Wire Line
	6900 2750 7200 2750
Wire Wire Line
	6600 2800 6600 2750
Connection ~ 6600 2750
Wire Wire Line
	6600 2750 6900 2750
Wire Wire Line
	6300 2800 6300 2750
Connection ~ 6300 2750
Wire Wire Line
	6300 2750 6600 2750
Wire Wire Line
	6000 3100 6000 3200
Wire Wire Line
	6300 3100 6300 3200
Wire Wire Line
	6600 3100 6600 3200
Wire Wire Line
	6900 3100 6900 3200
Wire Wire Line
	7200 3100 7200 3200
Wire Wire Line
	7500 3100 7500 3200
$Comp
L power:+3.3V #PWR?
U 1 1 5F8AF87F
P 6000 2700
AR Path="/60BBDBFB/5F8AF87F" Ref="#PWR?"  Part="1" 
AR Path="/60BBDBFB/5FD44D44/5F8AF87F" Ref="#PWR?"  Part="1" 
AR Path="/60BBDBFB/5FE02493/5F8AF87F" Ref="#PWR?"  Part="1" 
AR Path="/60BBDBFB/5FE91FD8/5F8AF87F" Ref="#PWR?"  Part="1" 
F 0 "#PWR?" H 6000 2550 50  0001 C CNN
F 1 "+3.3V" H 6015 2873 50  0000 C CNN
F 2 "" H 6000 2700 50  0001 C CNN
F 3 "" H 6000 2700 50  0001 C CNN
	1    6000 2700
	1    0    0    -1  
$EndComp
Text Label 6000 3200 3    50   ~ 0
RX_LOS
Text Label 6300 3200 3    50   ~ 0
TX_FAULT
Text Label 6600 3200 3    50   ~ 0
MOD_ABS
Text Label 6900 3200 3    50   ~ 0
TX_DISABLE
Text Label 7200 3200 3    50   ~ 0
RS0
Text Label 7500 3200 3    50   ~ 0
RS1
$Comp
L Device:R R?
U 1 1 5F8B2DD1
P 6300 2950
AR Path="/60BBDBFB/5F8B2DD1" Ref="R?"  Part="1" 
AR Path="/60BBDBFB/5FD44D44/5F8B2DD1" Ref="R?"  Part="1" 
AR Path="/60BBDBFB/5FE02493/5F8B2DD1" Ref="R?"  Part="1" 
AR Path="/60BBDBFB/5FE91FD8/5F8B2DD1" Ref="R?"  Part="1" 
F 0 "R?" H 6370 2996 50  0000 L CNN
F 1 "4k7" H 6370 2905 50  0000 L CNN
F 2 "" V 6230 2950 50  0001 C CNN
F 3 "~" H 6300 2950 50  0001 C CNN
	1    6300 2950
	1    0    0    -1  
$EndComp
$Comp
L Device:R R?
U 1 1 5F8B3314
P 6600 2950
AR Path="/60BBDBFB/5F8B3314" Ref="R?"  Part="1" 
AR Path="/60BBDBFB/5FD44D44/5F8B3314" Ref="R?"  Part="1" 
AR Path="/60BBDBFB/5FE02493/5F8B3314" Ref="R?"  Part="1" 
AR Path="/60BBDBFB/5FE91FD8/5F8B3314" Ref="R?"  Part="1" 
F 0 "R?" H 6670 2996 50  0000 L CNN
F 1 "4k7" H 6670 2905 50  0000 L CNN
F 2 "" V 6530 2950 50  0001 C CNN
F 3 "~" H 6600 2950 50  0001 C CNN
	1    6600 2950
	1    0    0    -1  
$EndComp
$Comp
L Device:R R?
U 1 1 5F8B37F1
P 6900 2950
AR Path="/60BBDBFB/5F8B37F1" Ref="R?"  Part="1" 
AR Path="/60BBDBFB/5FD44D44/5F8B37F1" Ref="R?"  Part="1" 
AR Path="/60BBDBFB/5FE02493/5F8B37F1" Ref="R?"  Part="1" 
AR Path="/60BBDBFB/5FE91FD8/5F8B37F1" Ref="R?"  Part="1" 
F 0 "R?" H 6970 2996 50  0000 L CNN
F 1 "4k7" H 6970 2905 50  0000 L CNN
F 2 "" V 6830 2950 50  0001 C CNN
F 3 "~" H 6900 2950 50  0001 C CNN
	1    6900 2950
	1    0    0    -1  
$EndComp
$Comp
L Device:R R?
U 1 1 5F887D8A
P 7500 2950
AR Path="/60BBDBFB/5F887D8A" Ref="R?"  Part="1" 
AR Path="/60BBDBFB/5FD44D44/5F887D8A" Ref="R?"  Part="1" 
AR Path="/60BBDBFB/5FE02493/5F887D8A" Ref="R?"  Part="1" 
AR Path="/60BBDBFB/5FE91FD8/5F887D8A" Ref="R?"  Part="1" 
F 0 "R?" H 7570 2996 50  0000 L CNN
F 1 "1k" H 7570 2905 50  0000 L CNN
F 2 "" V 7430 2950 50  0001 C CNN
F 3 "~" H 7500 2950 50  0001 C CNN
	1    7500 2950
	1    0    0    -1  
$EndComp
$Comp
L Device:R R?
U 1 1 5F8BDF73
P 3550 1300
AR Path="/60BBDBFB/5F8BDF73" Ref="R?"  Part="1" 
AR Path="/60BBDBFB/5FD44D44/5F8BDF73" Ref="R?"  Part="1" 
AR Path="/60BBDBFB/5FE02493/5F8BDF73" Ref="R?"  Part="1" 
AR Path="/60BBDBFB/5FE91FD8/5F8BDF73" Ref="R?"  Part="1" 
F 0 "R?" H 3620 1346 50  0000 L CNN
F 1 "4k7" H 3620 1255 50  0000 L CNN
F 2 "" V 3480 1300 50  0001 C CNN
F 3 "~" H 3550 1300 50  0001 C CNN
	1    3550 1300
	1    0    0    -1  
$EndComp
$Comp
L Device:R R?
U 1 1 5F8C2001
P 3800 1300
AR Path="/60BBDBFB/5F8C2001" Ref="R?"  Part="1" 
AR Path="/60BBDBFB/5FD44D44/5F8C2001" Ref="R?"  Part="1" 
AR Path="/60BBDBFB/5FE02493/5F8C2001" Ref="R?"  Part="1" 
AR Path="/60BBDBFB/5FE91FD8/5F8C2001" Ref="R?"  Part="1" 
F 0 "R?" H 3870 1346 50  0000 L CNN
F 1 "4k7" H 3870 1255 50  0000 L CNN
F 2 "" V 3730 1300 50  0001 C CNN
F 3 "~" H 3800 1300 50  0001 C CNN
	1    3800 1300
	1    0    0    -1  
$EndComp
$Comp
L Device:R R?
U 1 1 5F8C25F7
P 5300 1300
AR Path="/60BBDBFB/5F8C25F7" Ref="R?"  Part="1" 
AR Path="/60BBDBFB/5FD44D44/5F8C25F7" Ref="R?"  Part="1" 
AR Path="/60BBDBFB/5FE02493/5F8C25F7" Ref="R?"  Part="1" 
AR Path="/60BBDBFB/5FE91FD8/5F8C25F7" Ref="R?"  Part="1" 
F 0 "R?" H 5370 1346 50  0000 L CNN
F 1 "4k7" H 5370 1255 50  0000 L CNN
F 2 "" V 5230 1300 50  0001 C CNN
F 3 "~" H 5300 1300 50  0001 C CNN
	1    5300 1300
	1    0    0    -1  
$EndComp
$Comp
L Device:R R?
U 1 1 5F8C2E65
P 5600 1300
AR Path="/60BBDBFB/5F8C2E65" Ref="R?"  Part="1" 
AR Path="/60BBDBFB/5FD44D44/5F8C2E65" Ref="R?"  Part="1" 
AR Path="/60BBDBFB/5FE02493/5F8C2E65" Ref="R?"  Part="1" 
AR Path="/60BBDBFB/5FE91FD8/5F8C2E65" Ref="R?"  Part="1" 
F 0 "R?" H 5670 1346 50  0000 L CNN
F 1 "4k7" H 5670 1255 50  0000 L CNN
F 2 "" V 5530 1300 50  0001 C CNN
F 3 "~" H 5600 1300 50  0001 C CNN
	1    5600 1300
	1    0    0    -1  
$EndComp
$EndSCHEMATC
