EESchema Schematic File Version 4
EELAYER 30 0
EELAYER END
$Descr A4 11693 8268
encoding utf-8
Sheet 3 5
Title ""
Date ""
Rev ""
Comp ""
Comment1 ""
Comment2 ""
Comment3 ""
Comment4 ""
$EndDescr
$Comp
L 10cx085:10CX085YU484E6G U?
U 2 1 60C496F0
P 1000 1050
AR Path="/60C496F0" Ref="U?"  Part="2" 
AR Path="/60BBDBFB/60C496F0" Ref="U?"  Part="2" 
F 0 "U?" H 2800 1340 60  0000 C CNN
F 1 "10CX085YU484E6G" H 2800 1234 60  0000 C CNN
F 2 "UBGA484:BGA-484_22x22_19.0x19.0mm" H 1200 1100 60  0001 L CNN
F 3 "" H 1200 900 60  0001 L CNN
F 4 "10CX085YU484E6G" H 1200 1000 60  0001 L CNN "manf#"
	2    1000 1050
	1    0    0    -1  
$EndComp
$Comp
L Connector:Bus_PCI_Express_x4 J?
U 1 1 60C6EB6B
P 1900 4700
F 0 "J?" H 1900 3311 50  0000 C CNN
F 1 "Bus_PCI_Express_x4" H 1900 3220 50  0000 C CNN
F 2 "Connector_PCBEdge:BUS_PCIexpress_x4" H 1900 4600 50  0001 C CNN
F 3 "http://www.ritrontek.com/uploadfile/2016/1026/20161026105231124.pdf#page=63" H 1650 3450 50  0001 C CNN
	1    1900 4700
	1    0    0    -1  
$EndComp
$Sheet
S 5100 4750 650  650 
U 5FD44D44
F0 "SFP1" 50
F1 "SFP.sch" 50
F2 "RX+" I L 5100 4850 50 
F3 "RX-" I L 5100 4950 50 
F4 "TX+" I R 5750 4850 50 
F5 "TX-" I R 5750 4950 50 
F6 "INT_3V3" I R 5750 5200 50 
F7 "SDA" I L 5100 5200 50 
F8 "SCL" I L 5100 5300 50 
$EndSheet
$Sheet
S 5100 5650 650  650 
U 5FE91FD8
F0 "SFP2" 50
F1 "SFP.sch" 50
F2 "RX+" I L 5100 5750 50 
F3 "RX-" I L 5100 5850 50 
F4 "TX+" I R 5750 5750 50 
F5 "TX-" I R 5750 5850 50 
F6 "INT_3V3" I R 5750 6100 50 
F7 "SDA" I L 5100 6100 50 
F8 "SCL" I L 5100 6200 50 
$EndSheet
Text Label 5900 4850 0    50   ~ 0
SFP1_TX+
Text Label 5900 4950 0    50   ~ 0
SFP1_TX-
Text Label 4950 4850 2    50   ~ 0
SFP1_RX+
Text Label 4950 4950 2    50   ~ 0
SFP1_RX-
Wire Wire Line
	4950 4850 5100 4850
Wire Wire Line
	4950 4950 5100 4950
Wire Wire Line
	5750 4850 5900 4850
Wire Wire Line
	5750 4950 5900 4950
$EndSCHEMATC
